{
  "global" : false,
  "content_types" : [ "QUOTE_TEMPLATE", "LANDING_PAGE", "SITE_PAGE", "BLOG_LISTING", "BLOG_POST" ],
  "host_template_types" : [ "PAGE", "BLOG_POST", "BLOG_LISTING", "QUOTE" ],
  "module_id" : 102551016572,
  "label" : "Parts Logo section - Theme",
  "is_available_for_new_content" : true
}