{
  "global" : false,
  "content_types" : [ "LANDING_PAGE", "SITE_PAGE" ],
  "host_template_types" : [ "PAGE" ],
  "module_id" : 158386224306,
  "label" : "Card Text LP",
  "is_available_for_new_content" : true
}