{
  "global" : false,
  "content_types" : [ "LANDING_PAGE", "SITE_PAGE", "EMAIL" ],
  "host_template_types" : [ "PAGE", "EMAIL" ],
  "module_id" : 170849064978,
  "is_available_for_new_content" : true
}