[ {
  "id" : "75497864-0037-7558-6d8a-02b745fc9044",
  "name" : "style",
  "display_width" : null,
  "label" : "Style",
  "required" : false,
  "locked" : false,
  "children" : [ {
    "id" : "3286c96f-cf0a-ef27-0cd2-4f00084b384d",
    "name" : "section_show_hide_",
    "display_width" : null,
    "label" : "Section [ Show | Hide ]",
    "required" : false,
    "locked" : false,
    "display" : "checkbox",
    "type" : "boolean",
    "default" : true
  }, {
    "id" : "b689f769-5520-25b7-8b47-6a0f75b5bba6",
    "name" : "section_background",
    "display_width" : null,
    "label" : "Section Background",
    "required" : false,
    "locked" : false,
    "type" : "gradient",
    "default" : { }
  }, {
    "id" : "10a8cd34-879e-0192-9acc-1112ccb32e83",
    "name" : "desktop_spacing",
    "display_width" : null,
    "label" : "Desktop Spacing",
    "required" : false,
    "locked" : false,
    "type" : "spacing",
    "default" : {
      "padding" : {
        "top" : {
          "value" : 100,
          "units" : "px"
        },
        "bottom" : {
          "value" : 100,
          "units" : "px"
        },
        "left" : {
          "value" : null,
          "units" : null
        },
        "right" : {
          "value" : null,
          "units" : null
        }
      }
    }
  }, {
    "id" : "7f2f1ffd-2075-d57d-5982-23b86d8bd177",
    "name" : "tablet_spacing",
    "display_width" : null,
    "label" : "Tablet Spacing",
    "required" : false,
    "locked" : false,
    "type" : "spacing",
    "default" : {
      "padding" : {
        "top" : {
          "value" : 80,
          "units" : "px"
        },
        "bottom" : {
          "value" : 80,
          "units" : "px"
        },
        "left" : {
          "value" : null,
          "units" : null
        },
        "right" : {
          "value" : null,
          "units" : null
        }
      }
    }
  }, {
    "id" : "adf6e404-3d20-1978-2ddb-c771c6001729",
    "name" : "mobile_spacing",
    "display_width" : null,
    "label" : "Mobile Spacing",
    "required" : false,
    "locked" : false,
    "type" : "spacing",
    "default" : {
      "padding" : {
        "top" : {
          "value" : 50,
          "units" : "px"
        },
        "bottom" : {
          "value" : 50,
          "units" : "px"
        },
        "left" : {
          "value" : null,
          "units" : null
        },
        "right" : {
          "value" : null,
          "units" : null
        }
      }
    }
  }, {
    "id" : "fab2ac7c-2df9-9de9-783c-0b90f8655c1b",
    "name" : "color_settings",
    "display_width" : null,
    "label" : "Color Settings",
    "required" : false,
    "locked" : false,
    "children" : [ {
      "id" : "10b921cc-5055-13ac-854d-a42cf447157e",
      "name" : "title_color",
      "display_width" : null,
      "label" : "Title Color",
      "required" : false,
      "locked" : false,
      "type" : "color",
      "default" : {
        "color" : null,
        "opacity" : null
      }
    }, {
      "id" : "54d7774d-ef7f-21e8-eb7d-779e1d282992",
      "name" : "paragraph_text_color",
      "display_width" : null,
      "label" : "Paragraph Text Color",
      "required" : false,
      "locked" : false,
      "type" : "color",
      "default" : {
        "color" : null,
        "opacity" : null
      }
    } ],
    "tab" : "STYLE",
    "expanded" : false,
    "group_occurrence_meta" : null,
    "type" : "group",
    "default" : {
      "title_color" : {
        "color" : null,
        "opacity" : null
      },
      "paragraph_text_color" : {
        "color" : null,
        "opacity" : null
      }
    }
  } ],
  "tab" : "STYLE",
  "expanded" : false,
  "group_occurrence_meta" : null,
  "type" : "group",
  "default" : {
    "section_show_hide_" : true,
    "section_background" : { },
    "desktop_spacing" : {
      "padding" : {
        "top" : {
          "value" : 100,
          "units" : "px"
        },
        "bottom" : {
          "value" : 100,
          "units" : "px"
        },
        "left" : {
          "value" : null,
          "units" : null
        },
        "right" : {
          "value" : null,
          "units" : null
        }
      }
    },
    "tablet_spacing" : {
      "padding" : {
        "top" : {
          "value" : 80,
          "units" : "px"
        },
        "bottom" : {
          "value" : 80,
          "units" : "px"
        },
        "left" : {
          "value" : null,
          "units" : null
        },
        "right" : {
          "value" : null,
          "units" : null
        }
      }
    },
    "mobile_spacing" : {
      "padding" : {
        "top" : {
          "value" : 50,
          "units" : "px"
        },
        "bottom" : {
          "value" : 50,
          "units" : "px"
        },
        "left" : {
          "value" : null,
          "units" : null
        },
        "right" : {
          "value" : null,
          "units" : null
        }
      }
    },
    "color_settings" : {
      "title_color" : {
        "color" : null,
        "opacity" : null
      },
      "paragraph_text_color" : {
        "color" : null,
        "opacity" : null
      }
    }
  }
}, {
  "id" : "7b08b130-c25a-8a17-142a-d8e05ed64b5a",
  "name" : "title",
  "display_width" : null,
  "label" : "Title",
  "required" : false,
  "locked" : false,
  "validation_regex" : "",
  "allow_new_line" : false,
  "show_emoji_picker" : false,
  "type" : "text",
  "default" : "CONTINUOUS SERVICE FOR 75 YEARS..."
}, {
  "id" : "c26fd44b-2089-d00a-c92d-b014e44f06b1",
  "name" : "image_field",
  "display_width" : null,
  "label" : "Image",
  "required" : false,
  "locked" : false,
  "responsive" : true,
  "resizable" : true,
  "show_loading" : false,
  "type" : "image",
  "default" : {
    "size_type" : "auto",
    "src" : "https://4079460.fs1.hubspotusercontent-na1.net/hubfs/4079460/Assets%20ESS%20Theme%20-%202022/Images/75-year-anniv.png",
    "alt" : "75-year-anniv",
    "loading" : "lazy",
    "width" : 325,
    "height" : 326,
    "max_width" : 325,
    "max_height" : 326
  }
}, {
  "id" : "79fda75c-3012-0219-fe82-656d8d1c3e39",
  "name" : "button_color_settings",
  "display_width" : null,
  "label" : "Button Color Settings",
  "required" : false,
  "locked" : false,
  "children" : [ {
    "id" : "8e25efc6-c4fc-b303-1abb-dc767e0cbd15",
    "name" : "button_default_state",
    "display_width" : null,
    "label" : "Button Default State",
    "required" : false,
    "locked" : false,
    "children" : [ {
      "id" : "620be58e-9e90-7b27-072e-0139857117a7",
      "name" : "button_background_color",
      "display_width" : null,
      "label" : "Button Background Color",
      "required" : false,
      "locked" : false,
      "type" : "color",
      "default" : {
        "color" : null,
        "opacity" : null
      }
    }, {
      "id" : "ec343b7e-e070-15c5-57cc-5f44a01eacb8",
      "name" : "button_text_color",
      "display_width" : null,
      "label" : "Button Text Color",
      "required" : false,
      "locked" : false,
      "type" : "color",
      "default" : {
        "color" : null,
        "opacity" : null
      }
    } ],
    "tab" : "CONTENT",
    "expanded" : false,
    "group_occurrence_meta" : null,
    "type" : "group",
    "default" : {
      "button_background_color" : {
        "color" : null,
        "opacity" : null
      },
      "button_text_color" : {
        "color" : null,
        "opacity" : null
      }
    }
  }, {
    "id" : "47eb6ab7-7c99-6d91-d4b9-6c189e660fd1",
    "name" : "button_hover_state",
    "display_width" : null,
    "label" : "Button Hover State",
    "required" : false,
    "locked" : false,
    "children" : [ {
      "id" : "df2f0bd5-2325-9df9-849e-e90d9d9d5870",
      "name" : "button_background_color",
      "display_width" : null,
      "label" : "Button Background Color",
      "required" : false,
      "locked" : false,
      "type" : "color",
      "default" : {
        "color" : null,
        "opacity" : null
      }
    }, {
      "id" : "970998f3-ae31-1bea-6b48-14f25fcf1c4b",
      "name" : "button_text_color",
      "display_width" : null,
      "label" : "Button Text Color",
      "required" : false,
      "locked" : false,
      "type" : "color",
      "default" : {
        "color" : null,
        "opacity" : null
      }
    } ],
    "tab" : "CONTENT",
    "expanded" : false,
    "group_occurrence_meta" : null,
    "type" : "group",
    "default" : {
      "button_background_color" : {
        "color" : null,
        "opacity" : null
      },
      "button_text_color" : {
        "color" : null,
        "opacity" : null
      }
    }
  } ],
  "tab" : "CONTENT",
  "expanded" : false,
  "group_occurrence_meta" : null,
  "type" : "group",
  "default" : {
    "button_default_state" : {
      "button_background_color" : {
        "color" : null,
        "opacity" : null
      },
      "button_text_color" : {
        "color" : null,
        "opacity" : null
      }
    },
    "button_hover_state" : {
      "button_background_color" : {
        "color" : null,
        "opacity" : null
      },
      "button_text_color" : {
        "color" : null,
        "opacity" : null
      }
    }
  }
}, {
  "id" : "0dbae225-87b5-eb6d-aceb-94eb9e01ad2a",
  "name" : "content",
  "display_width" : null,
  "label" : "Content",
  "required" : false,
  "locked" : false,
  "type" : "richtext",
  "default" : "<p>Equipment Sales &amp; Service Limited has been keeping Canada's heavy equipment up &amp; running for more than 75 years. Every day, we prove our commitment to maximizing uptime and productivity for customers at work in construction, demolition, road building, mining, aggregates, forestry, and more. In addition to being the authorized dealer for many of today's most respected equipment brands in the equipment industry, ESS is renowned as Canada's largest supplier of aftermarket equipment parts and as an experienced specialist in undercarriage service. We have won Canada's Best Managed Companies award for 10 consecutive years (2011-2021).</p>\n<p>In Western Canada, we proudly represent equipment and parts lines from a full range of original equipment manufacturers including Link-Belt Cranes, LBX, and Terex trucks to serve the construction, mining, and forestry industries.</p>\n<p>In Central Canada, ESS is the full-line distributor for Komatsu equipment, Link-Belt Cranes, and Soilmec foundation drill rigs, serving construction, infrastructure, and demolition contractors throughout Ontario. We also meet our customers' needs with complete lines of parts suited to any application and any make or model.</p>\n<p>In Quebec, our ESStrac facility provides the best in aftermarket parts &amp; services to the customers in the Montreal region.</p>\n<p>Equipment Sales &amp; Service was founded in 1946, ranking it with Canada's oldest and most established equipment companies. Now in our third generation as a private family-owned business, ESS retains the flexibility to respond to customer needs quickly and to keep pace with our rapidly changing global economy. ESS takes pride in delivering a personal standard of service to customers based on our traditional values of hard work, integrity, and shared responsibility. In addition to our sales of heavy equipment, ESS is one of Canada's largest national service providers, supporting all makes of machinery with factory-trained service technicians and the nation's largest inventory of OEM, wear parts, and aftermarket parts. Our commitment to customer service is matched by our commitment to ESS employees. Our safety policy and staff training programs are designed to keep ESS personnel healthy, productive, and at the top of the equipment service professions.</p>"
} ]