{
  "global" : false,
  "content_types" : [ "LANDING_PAGE", "SITE_PAGE" ],
  "icon" : "@hubspot/boilerplate/images/module-icons/info-circle-solid.svg",
  "host_template_types" : [ "PAGE" ],
  "module_id" : 77244919842,
  "label" : "Card",
  "is_available_for_new_content" : true
}