[ {
  "id" : "show_previous_and_next_links",
  "name" : "show_previous_and_next_links",
  "display_width" : null,
  "label" : "Show previous and next links",
  "required" : false,
  "locked" : false,
  "display" : "checkbox",
  "type" : "boolean",
  "default" : true
}, {
  "id" : "previous_label",
  "name" : "previous_label",
  "display_width" : null,
  "label" : "Previous label",
  "required" : false,
  "locked" : false,
  "validation_regex" : "",
  "visibility" : {
    "controlling_field" : "show_previous_and_next_links",
    "controlling_field_path" : null,
    "controlling_value_regex" : "true",
    "property" : null,
    "operator" : "EQUAL",
    "access" : null
  },
  "allow_new_line" : false,
  "show_emoji_picker" : false,
  "type" : "text",
  "default" : "Prev"
}, {
  "id" : "next_label",
  "name" : "next_label",
  "display_width" : null,
  "label" : "Next label",
  "required" : false,
  "locked" : false,
  "validation_regex" : "",
  "visibility" : {
    "controlling_field" : "show_previous_and_next_links",
    "controlling_field_path" : null,
    "controlling_value_regex" : "true",
    "property" : null,
    "operator" : "EQUAL",
    "access" : null
  },
  "allow_new_line" : false,
  "show_emoji_picker" : false,
  "type" : "text",
  "default" : "Next"
}, {
  "id" : "show_first_and_last_links",
  "name" : "show_first_and_last_links",
  "display_width" : null,
  "label" : "Show first and last links",
  "required" : false,
  "locked" : false,
  "display" : "checkbox",
  "type" : "boolean",
  "default" : true
}, {
  "id" : "first_label",
  "name" : "first_label",
  "display_width" : null,
  "label" : "First label",
  "required" : false,
  "locked" : false,
  "validation_regex" : "",
  "visibility" : {
    "controlling_field" : "show_first_and_last_links",
    "controlling_field_path" : null,
    "controlling_value_regex" : "true",
    "property" : null,
    "operator" : "EQUAL",
    "access" : null
  },
  "allow_new_line" : false,
  "show_emoji_picker" : false,
  "type" : "text",
  "default" : "First"
}, {
  "id" : "last_label",
  "name" : "last_label",
  "display_width" : null,
  "label" : "Last label",
  "required" : false,
  "locked" : false,
  "validation_regex" : "",
  "visibility" : {
    "controlling_field" : "show_first_and_last_links",
    "controlling_field_path" : null,
    "controlling_value_regex" : "true",
    "property" : null,
    "operator" : "EQUAL",
    "access" : null
  },
  "allow_new_line" : false,
  "show_emoji_picker" : false,
  "type" : "text",
  "default" : "Last"
}, {
  "id" : "styles",
  "name" : "styles",
  "display_width" : null,
  "label" : "Styles",
  "required" : false,
  "locked" : false,
  "children" : [ {
    "id" : "styles.text",
    "name" : "text",
    "display_width" : null,
    "label" : "Text",
    "required" : false,
    "locked" : false,
    "children" : [ {
      "id" : "styles.text.font",
      "name" : "font",
      "display_width" : null,
      "label" : "Font",
      "required" : false,
      "locked" : false,
      "load_external_fonts" : true,
      "type" : "font",
      "default" : {
        "size_unit" : "px"
      }
    } ],
    "tab" : "STYLE",
    "expanded" : false,
    "group_occurrence_meta" : null,
    "type" : "group"
  }, {
    "id" : "styles.spacing",
    "name" : "spacing",
    "display_width" : null,
    "label" : "Spacing",
    "required" : false,
    "locked" : false,
    "children" : [ {
      "id" : "styles.spacing.space_between_links",
      "name" : "space_between_links",
      "display_width" : null,
      "label" : "Space between links",
      "required" : false,
      "locked" : false,
      "display" : "slider",
      "min" : 0,
      "max" : 50,
      "step" : 5,
      "suffix" : "px",
      "type" : "number"
    }, {
      "id" : "styles.spacing.spacing",
      "name" : "spacing",
      "display_width" : null,
      "label" : "Spacing",
      "required" : false,
      "locked" : false,
      "visibility" : {
        "controlling_field" : null,
        "controlling_field_path" : null,
        "controlling_value_regex" : null,
        "property" : null,
        "operator" : null,
        "access" : null,
        "hidden_subfields" : {
          "padding" : true
        }
      },
      "type" : "spacing",
      "default" : { }
    } ],
    "tab" : "STYLE",
    "expanded" : false,
    "group_occurrence_meta" : null,
    "type" : "group"
  }, {
    "id" : "styles.active",
    "name" : "active",
    "display_width" : null,
    "label" : "Active",
    "required" : false,
    "locked" : false,
    "children" : [ {
      "id" : "styles.active.border",
      "name" : "border",
      "display_width" : null,
      "label" : "Border",
      "required" : false,
      "locked" : false,
      "children" : [ {
        "id" : "styles.active.border.border",
        "name" : "border",
        "display_width" : null,
        "label" : "Border",
        "required" : false,
        "locked" : false,
        "allow_custom_border_sides" : false,
        "type" : "border",
        "default" : { }
      } ],
      "tab" : "STYLE",
      "expanded" : false,
      "group_occurrence_meta" : null,
      "type" : "group"
    }, {
      "id" : "styles.active.corner",
      "name" : "corner",
      "display_width" : null,
      "label" : "Corner",
      "required" : false,
      "locked" : false,
      "children" : [ {
        "id" : "styles.active.corner.radius",
        "name" : "radius",
        "display_width" : null,
        "label" : "Radius",
        "required" : false,
        "locked" : false,
        "display" : "text",
        "max" : 100,
        "step" : 1,
        "suffix" : "px",
        "type" : "number"
      } ],
      "tab" : "STYLE",
      "expanded" : false,
      "group_occurrence_meta" : null,
      "type" : "group"
    } ],
    "tab" : "STYLE",
    "expanded" : false,
    "group_occurrence_meta" : null,
    "type" : "group"
  } ],
  "tab" : "STYLE",
  "expanded" : false,
  "group_occurrence_meta" : null,
  "type" : "group"
} ]