[ {
  "id" : "title",
  "name" : "title",
  "display_width" : null,
  "label" : "Title",
  "help_text" : "",
  "inline_help_text" : "",
  "required" : false,
  "locked" : false,
  "validation_regex" : "",
  "validation_error_message" : "",
  "placeholder" : "",
  "allow_new_line" : false,
  "show_emoji_picker" : false,
  "type" : "text",
  "default" : "Connect"
}, {
  "id" : "social_images",
  "name" : "social_images",
  "display_width" : null,
  "label" : "Social Images",
  "help_text" : "",
  "inline_help_text" : "",
  "required" : false,
  "locked" : false,
  "occurrence" : {
    "min" : 2,
    "max" : 4,
    "sorting_label_field" : null,
    "default" : 4
  },
  "children" : [ {
    "id" : "social_images.social_image",
    "name" : "social_image",
    "display_width" : null,
    "label" : "Social Image",
    "help_text" : "",
    "inline_help_text" : "",
    "required" : false,
    "locked" : false,
    "responsive" : true,
    "resizable" : true,
    "show_loading" : false,
    "type" : "image",
    "default" : {
      "size_type" : "auto",
      "src" : "https://4079460.fs1.hubspotusercontent-na1.net/hubfs/4079460/Assets%20ESS%20Theme%20-%202022/Images/Group%201535.svg",
      "alt" : null,
      "loading" : "disabled"
    }
  }, {
    "id" : "social_images.social_media_link",
    "name" : "social_media_link",
    "display_width" : null,
    "label" : "Social Media Link",
    "help_text" : "",
    "inline_help_text" : "",
    "required" : false,
    "locked" : false,
    "supported_types" : [ "EXTERNAL", "CONTENT", "FILE", "EMAIL_ADDRESS", "BLOG" ],
    "show_advanced_rel_options" : false,
    "type" : "link",
    "default" : {
      "url" : {
        "content_id" : null,
        "type" : "EXTERNAL",
        "href" : ""
      },
      "open_in_new_tab" : false,
      "no_follow" : false
    }
  } ],
  "tab" : "CONTENT",
  "expanded" : false,
  "group_occurrence_meta" : null,
  "type" : "group",
  "default" : [ {
    "social_image" : {
      "size_type" : "auto",
      "src" : "https://4079460.fs1.hubspotusercontent-na1.net/hubfs/4079460/Assets%20ESS%20Theme%20-%202022/Images/Group%201535.svg",
      "alt" : null,
      "loading" : "disabled"
    },
    "social_media_link" : {
      "url" : {
        "content_id" : null,
        "type" : "EXTERNAL",
        "href" : ""
      },
      "open_in_new_tab" : false,
      "no_follow" : false
    }
  }, {
    "social_image" : {
      "size_type" : "auto",
      "src" : "https://4079460.fs1.hubspotusercontent-na1.net/hubfs/4079460/Assets%20ESS%20Theme%20-%202022/Images/Group%201535.svg",
      "alt" : null,
      "loading" : "disabled"
    },
    "social_media_link" : {
      "url" : {
        "content_id" : null,
        "type" : "EXTERNAL",
        "href" : ""
      },
      "open_in_new_tab" : false,
      "no_follow" : false
    }
  }, {
    "social_image" : {
      "size_type" : "auto",
      "src" : "https://4079460.fs1.hubspotusercontent-na1.net/hubfs/4079460/Assets%20ESS%20Theme%20-%202022/Images/Group%201535.svg",
      "alt" : null,
      "loading" : "disabled"
    },
    "social_media_link" : {
      "url" : {
        "content_id" : null,
        "type" : "EXTERNAL",
        "href" : ""
      },
      "open_in_new_tab" : false,
      "no_follow" : false
    }
  }, {
    "social_image" : {
      "size_type" : "auto",
      "src" : "https://4079460.fs1.hubspotusercontent-na1.net/hubfs/4079460/Assets%20ESS%20Theme%20-%202022/Images/Group%201535.svg",
      "alt" : null,
      "loading" : "disabled"
    },
    "social_media_link" : {
      "url" : {
        "content_id" : null,
        "type" : "EXTERNAL",
        "href" : ""
      },
      "open_in_new_tab" : false,
      "no_follow" : false
    }
  } ]
}, {
  "id" : "image",
  "name" : "image",
  "display_width" : null,
  "label" : "Image Group",
  "help_text" : "",
  "inline_help_text" : "",
  "required" : false,
  "locked" : false,
  "children" : [ {
    "id" : "image.google_image",
    "name" : "google_image",
    "display_width" : null,
    "label" : "google_image",
    "help_text" : "",
    "inline_help_text" : "",
    "required" : false,
    "locked" : false,
    "responsive" : true,
    "resizable" : true,
    "show_loading" : false,
    "type" : "image",
    "default" : {
      "size_type" : "auto",
      "src" : "https://www.essltd.com/wp-content/uploads/2020/01/google-review-ESS.jpg",
      "alt" : null,
      "loading" : "disabled"
    }
  }, {
    "id" : "image.page_link",
    "name" : "page_link",
    "display_width" : null,
    "label" : "Page Link",
    "help_text" : "",
    "inline_help_text" : "",
    "required" : false,
    "locked" : false,
    "supported_types" : [ "EXTERNAL", "CONTENT", "FILE", "EMAIL_ADDRESS", "BLOG" ],
    "show_advanced_rel_options" : false,
    "type" : "link",
    "default" : {
      "url" : {
        "content_id" : null,
        "type" : "EXTERNAL",
        "href" : ""
      },
      "open_in_new_tab" : false,
      "no_follow" : false
    }
  } ],
  "tab" : "CONTENT",
  "expanded" : false,
  "group_occurrence_meta" : null,
  "type" : "group",
  "default" : {
    "google_image" : {
      "size_type" : "auto",
      "src" : "https://www.essltd.com/wp-content/uploads/2020/01/google-review-ESS.jpg",
      "alt" : null,
      "loading" : "disabled"
    },
    "page_link" : {
      "url" : {
        "content_id" : null,
        "type" : "EXTERNAL",
        "href" : ""
      },
      "open_in_new_tab" : false,
      "no_follow" : false
    }
  }
}, {
  "id" : "styles",
  "name" : "styles",
  "display_width" : null,
  "label" : "Styles",
  "required" : false,
  "locked" : false,
  "children" : [ {
    "id" : "styles.section_show_hide_",
    "name" : "section_show_hide_",
    "display_width" : null,
    "label" : "Section [ Show | Hide ]",
    "help_text" : "",
    "inline_help_text" : "",
    "required" : false,
    "locked" : false,
    "display" : "checkbox",
    "type" : "boolean",
    "default" : true
  }, {
    "id" : "styles.background_color",
    "name" : "background_color",
    "display_width" : null,
    "label" : "Background Color",
    "help_text" : "",
    "inline_help_text" : "",
    "required" : false,
    "locked" : false,
    "type" : "color",
    "default" : {
      "color" : "#140A9A",
      "opacity" : 100
    }
  }, {
    "id" : "styles.color_settings",
    "name" : "color_settings",
    "display_width" : null,
    "label" : "Color Settings",
    "help_text" : "",
    "inline_help_text" : "",
    "required" : false,
    "locked" : false,
    "children" : [ {
      "id" : "styles.color_settings.title_color",
      "name" : "title_color",
      "display_width" : null,
      "label" : "Title Color ",
      "help_text" : "",
      "inline_help_text" : "",
      "required" : false,
      "locked" : false,
      "type" : "color",
      "default" : {
        "color" : null,
        "opacity" : null
      }
    }, {
      "id" : "styles.color_settings.title_ul_color",
      "name" : "title_ul_color",
      "display_width" : null,
      "label" : "Title Ul Color",
      "help_text" : "",
      "inline_help_text" : "",
      "required" : false,
      "locked" : false,
      "type" : "color",
      "default" : {
        "color" : "#ffc82f",
        "opacity" : 100
      }
    } ],
    "tab" : "STYLE",
    "expanded" : false,
    "group_occurrence_meta" : null,
    "type" : "group",
    "default" : {
      "title_color" : {
        "color" : null,
        "opacity" : null
      },
      "title_ul_color" : {
        "color" : "#ffc82f",
        "opacity" : 100
      }
    }
  }, {
    "id" : "styles.spacing",
    "name" : "spacing",
    "display_width" : null,
    "label" : "Spacing",
    "help_text" : "",
    "inline_help_text" : "",
    "required" : false,
    "locked" : false,
    "children" : [ {
      "id" : "styles.spacing.desktop_spacing",
      "name" : "desktop_spacing",
      "display_width" : null,
      "label" : "Desktop Spacing",
      "required" : false,
      "locked" : false,
      "type" : "spacing",
      "default" : {
        "padding" : {
          "top" : {
            "value" : 82,
            "units" : "px"
          },
          "bottom" : {
            "value" : 85,
            "units" : "px"
          },
          "left" : {
            "value" : null,
            "units" : null
          },
          "right" : {
            "value" : null,
            "units" : null
          }
        }
      }
    }, {
      "id" : "styles.spacing.Mobile_spacing",
      "name" : "Mobile_spacing",
      "display_width" : null,
      "label" : "Mobile Spacing",
      "required" : false,
      "locked" : false,
      "type" : "spacing",
      "default" : {
        "padding" : {
          "top" : {
            "value" : 82,
            "units" : "px"
          },
          "bottom" : {
            "value" : 85,
            "units" : "px"
          },
          "left" : {
            "value" : null,
            "units" : null
          },
          "right" : {
            "value" : null,
            "units" : null
          }
        }
      }
    } ],
    "tab" : "STYLE",
    "expanded" : false,
    "group_occurrence_meta" : null,
    "type" : "group",
    "default" : {
      "desktop_spacing" : {
        "padding" : {
          "top" : {
            "value" : 82,
            "units" : "px"
          },
          "bottom" : {
            "value" : 85,
            "units" : "px"
          },
          "left" : {
            "value" : null,
            "units" : null
          },
          "right" : {
            "value" : null,
            "units" : null
          }
        }
      },
      "Mobile_spacing" : {
        "padding" : {
          "top" : {
            "value" : 82,
            "units" : "px"
          },
          "bottom" : {
            "value" : 85,
            "units" : "px"
          },
          "left" : {
            "value" : null,
            "units" : null
          },
          "right" : {
            "value" : null,
            "units" : null
          }
        }
      }
    }
  } ],
  "tab" : "STYLE",
  "expanded" : false,
  "group_occurrence_meta" : null,
  "type" : "group",
  "default" : {
    "section_show_hide_" : true,
    "background_color" : {
      "color" : "#140A9A",
      "opacity" : 100
    },
    "color_settings" : {
      "title_color" : {
        "color" : null,
        "opacity" : null
      },
      "title_ul_color" : {
        "color" : "#ffc82f",
        "opacity" : 100
      }
    },
    "spacing" : {
      "desktop_spacing" : {
        "padding" : {
          "top" : {
            "value" : 82,
            "units" : "px"
          },
          "bottom" : {
            "value" : 85,
            "units" : "px"
          },
          "left" : {
            "value" : null,
            "units" : null
          },
          "right" : {
            "value" : null,
            "units" : null
          }
        }
      },
      "Mobile_spacing" : {
        "padding" : {
          "top" : {
            "value" : 82,
            "units" : "px"
          },
          "bottom" : {
            "value" : 85,
            "units" : "px"
          },
          "left" : {
            "value" : null,
            "units" : null
          },
          "right" : {
            "value" : null,
            "units" : null
          }
        }
      }
    }
  }
} ]