[ {
  "id" : "75497864-0037-7558-6d8a-02b745fc9044",
  "name" : "style",
  "display_width" : null,
  "label" : "Style",
  "required" : false,
  "locked" : false,
  "children" : [ {
    "id" : "3286c96f-cf0a-ef27-0cd2-4f00084b384d",
    "name" : "section_show_hide_",
    "display_width" : null,
    "label" : "Section [ Show | Hide ]",
    "required" : false,
    "locked" : false,
    "display" : "checkbox",
    "type" : "boolean",
    "default" : true
  }, {
    "id" : "b689f769-5520-25b7-8b47-6a0f75b5bba6",
    "name" : "section_background",
    "display_width" : null,
    "label" : "Section Background",
    "required" : false,
    "locked" : false,
    "type" : "gradient",
    "default" : { }
  }, {
    "id" : "10a8cd34-879e-0192-9acc-1112ccb32e83",
    "name" : "desktop_spacing",
    "display_width" : null,
    "label" : "Desktop Spacing",
    "required" : false,
    "locked" : false,
    "type" : "spacing",
    "default" : {
      "padding" : {
        "top" : {
          "value" : 74,
          "units" : "px"
        },
        "bottom" : {
          "value" : 57,
          "units" : "px"
        },
        "left" : {
          "value" : null,
          "units" : null
        },
        "right" : {
          "value" : null,
          "units" : null
        }
      }
    }
  }, {
    "id" : "7f2f1ffd-2075-d57d-5982-23b86d8bd177",
    "name" : "tablet_spacing",
    "display_width" : null,
    "label" : "Tablet Spacing",
    "required" : false,
    "locked" : false,
    "type" : "spacing",
    "default" : { }
  }, {
    "id" : "adf6e404-3d20-1978-2ddb-c771c6001729",
    "name" : "mobile_spacing",
    "display_width" : null,
    "label" : "Mobile Spacing",
    "required" : false,
    "locked" : false,
    "type" : "spacing",
    "default" : { }
  }, {
    "id" : "fab2ac7c-2df9-9de9-783c-0b90f8655c1b",
    "name" : "color_settings",
    "display_width" : null,
    "label" : "Color Settings",
    "required" : false,
    "locked" : false,
    "children" : [ {
      "id" : "10b921cc-5055-13ac-854d-a42cf447157e",
      "name" : "title_color",
      "display_width" : null,
      "label" : "Title Color",
      "required" : false,
      "locked" : false,
      "type" : "color",
      "default" : {
        "color" : null,
        "opacity" : null
      }
    }, {
      "id" : "54d7774d-ef7f-21e8-eb7d-779e1d282992",
      "name" : "paragraph_text_color",
      "display_width" : null,
      "label" : "Paragraph Text Color",
      "required" : false,
      "locked" : false,
      "type" : "color",
      "default" : {
        "color" : null,
        "opacity" : null
      }
    } ],
    "tab" : "STYLE",
    "expanded" : false,
    "group_occurrence_meta" : null,
    "type" : "group",
    "default" : {
      "title_color" : {
        "color" : null,
        "opacity" : null
      },
      "paragraph_text_color" : {
        "color" : null,
        "opacity" : null
      }
    }
  } ],
  "tab" : "STYLE",
  "expanded" : false,
  "group_occurrence_meta" : null,
  "type" : "group",
  "default" : {
    "section_show_hide_" : true,
    "section_background" : { },
    "desktop_spacing" : {
      "padding" : {
        "top" : {
          "value" : 74,
          "units" : "px"
        },
        "bottom" : {
          "value" : 57,
          "units" : "px"
        },
        "left" : {
          "value" : null,
          "units" : null
        },
        "right" : {
          "value" : null,
          "units" : null
        }
      }
    },
    "tablet_spacing" : { },
    "mobile_spacing" : { },
    "color_settings" : {
      "title_color" : {
        "color" : null,
        "opacity" : null
      },
      "paragraph_text_color" : {
        "color" : null,
        "opacity" : null
      }
    }
  }
}, {
  "id" : "383521ce-be22-88b2-2b7f-754365318918",
  "name" : "title",
  "display_width" : null,
  "label" : "Title",
  "required" : false,
  "locked" : false,
  "validation_regex" : "",
  "allow_new_line" : false,
  "show_emoji_picker" : false,
  "type" : "text",
  "default" : ""
}, {
  "id" : "a8a25ebc-e745-a30a-685f-ce71aac85646",
  "name" : "subtitle",
  "display_width" : null,
  "label" : "Subtitle",
  "required" : false,
  "locked" : false,
  "validation_regex" : "",
  "allow_new_line" : false,
  "show_emoji_picker" : false,
  "type" : "text",
  "default" : ""
}, {
  "id" : "655205d3-67ee-44cc-887c-69017a77a930",
  "name" : "button_text",
  "display_width" : null,
  "label" : "Button Text",
  "required" : false,
  "locked" : false,
  "validation_regex" : "",
  "allow_new_line" : false,
  "show_emoji_picker" : false,
  "type" : "text",
  "default" : ""
}, {
  "id" : "bf504191-fe99-d554-5523-7f13085beb63",
  "name" : "button_link",
  "display_width" : null,
  "label" : "Button Link",
  "required" : false,
  "locked" : false,
  "supported_types" : [ "EXTERNAL", "CONTENT", "FILE", "EMAIL_ADDRESS", "BLOG" ],
  "show_advanced_rel_options" : false,
  "type" : "link",
  "default" : {
    "url" : {
      "type" : "EXTERNAL",
      "href" : "",
      "content_id" : null
    },
    "open_in_new_tab" : false,
    "no_follow" : false
  }
}, {
  "id" : "79fda75c-3012-0219-fe82-656d8d1c3e39",
  "name" : "button_color_settings",
  "display_width" : null,
  "label" : "Button Color Settings",
  "required" : false,
  "locked" : false,
  "children" : [ {
    "id" : "8e25efc6-c4fc-b303-1abb-dc767e0cbd15",
    "name" : "button_default_state",
    "display_width" : null,
    "label" : "Button Default State",
    "required" : false,
    "locked" : false,
    "children" : [ {
      "id" : "620be58e-9e90-7b27-072e-0139857117a7",
      "name" : "button_background_color",
      "display_width" : null,
      "label" : "Button Background Color",
      "required" : false,
      "locked" : false,
      "type" : "color",
      "default" : {
        "color" : null,
        "opacity" : null
      }
    }, {
      "id" : "ec343b7e-e070-15c5-57cc-5f44a01eacb8",
      "name" : "button_text_color",
      "display_width" : null,
      "label" : "Button Text Color",
      "required" : false,
      "locked" : false,
      "type" : "color",
      "default" : {
        "color" : null,
        "opacity" : null
      }
    } ],
    "tab" : "CONTENT",
    "expanded" : false,
    "group_occurrence_meta" : null,
    "type" : "group",
    "default" : {
      "button_background_color" : {
        "color" : null,
        "opacity" : null
      },
      "button_text_color" : {
        "color" : null,
        "opacity" : null
      }
    }
  }, {
    "id" : "47eb6ab7-7c99-6d91-d4b9-6c189e660fd1",
    "name" : "button_hover_state",
    "display_width" : null,
    "label" : "Button Hover State",
    "required" : false,
    "locked" : false,
    "children" : [ {
      "id" : "df2f0bd5-2325-9df9-849e-e90d9d9d5870",
      "name" : "button_background_color",
      "display_width" : null,
      "label" : "Button Background Color",
      "required" : false,
      "locked" : false,
      "type" : "color",
      "default" : {
        "color" : null,
        "opacity" : null
      }
    }, {
      "id" : "970998f3-ae31-1bea-6b48-14f25fcf1c4b",
      "name" : "button_text_color",
      "display_width" : null,
      "label" : "Button Text Color",
      "required" : false,
      "locked" : false,
      "type" : "color",
      "default" : {
        "color" : null,
        "opacity" : null
      }
    } ],
    "tab" : "CONTENT",
    "expanded" : false,
    "group_occurrence_meta" : null,
    "type" : "group",
    "default" : {
      "button_background_color" : {
        "color" : null,
        "opacity" : null
      },
      "button_text_color" : {
        "color" : null,
        "opacity" : null
      }
    }
  } ],
  "tab" : "CONTENT",
  "expanded" : false,
  "group_occurrence_meta" : null,
  "type" : "group",
  "default" : {
    "button_default_state" : {
      "button_background_color" : {
        "color" : null,
        "opacity" : null
      },
      "button_text_color" : {
        "color" : null,
        "opacity" : null
      }
    },
    "button_hover_state" : {
      "button_background_color" : {
        "color" : null,
        "opacity" : null
      },
      "button_text_color" : {
        "color" : null,
        "opacity" : null
      }
    }
  }
}, {
  "id" : "e16f921d-911c-eb81-7860-7fae91abbfc0",
  "name" : "sider_show_hide_",
  "display_width" : null,
  "label" : "Sider [ Show | Hide ]",
  "required" : false,
  "locked" : false,
  "display" : "checkbox",
  "type" : "boolean",
  "default" : true
}, {
  "id" : "2dd25afa-7df3-2b51-91ff-6dc3701f8b10",
  "name" : "logo_slides",
  "display_width" : null,
  "label" : "Logo Slides",
  "required" : false,
  "locked" : false,
  "occurrence" : {
    "min" : null,
    "max" : null,
    "sorting_label_field" : null,
    "default" : null
  },
  "children" : [ {
    "id" : "c8b2d8f9-20d0-cf8b-5ffd-579577d01e2b",
    "name" : "logo_image",
    "display_width" : null,
    "label" : "Logo Image",
    "required" : false,
    "locked" : false,
    "responsive" : true,
    "resizable" : true,
    "show_loading" : false,
    "type" : "image",
    "default" : {
      "size_type" : "auto",
      "src" : "https://4079460.fs1.hubspotusercontent-na1.net/hubfs/4079460/esco%20logo.svg",
      "alt" : "esco logo",
      "loading" : "lazy",
      "width" : 300,
      "height" : 87,
      "max_width" : 300,
      "max_height" : 87
    }
  } ],
  "tab" : "CONTENT",
  "expanded" : false,
  "group_occurrence_meta" : null,
  "type" : "group",
  "default" : {
    "logo_image" : {
      "size_type" : "auto",
      "src" : "https://4079460.fs1.hubspotusercontent-na1.net/hubfs/4079460/esco%20logo.svg",
      "alt" : "esco logo",
      "loading" : "lazy",
      "width" : 300,
      "height" : 87,
      "max_width" : 300,
      "max_height" : 87
    }
  }
} ]