[ {
  "id" : "75497864-0037-7558-6d8a-02b745fc9044",
  "name" : "style",
  "display_width" : null,
  "label" : "Style",
  "required" : false,
  "locked" : false,
  "children" : [ {
    "id" : "3286c96f-cf0a-ef27-0cd2-4f00084b384d",
    "name" : "section_show_hide_",
    "display_width" : null,
    "label" : "Section [ Show | Hide ]",
    "required" : false,
    "locked" : false,
    "display" : "checkbox",
    "type" : "boolean",
    "default" : true
  }, {
    "id" : "b689f769-5520-25b7-8b47-6a0f75b5bba6",
    "name" : "section_background",
    "display_width" : null,
    "label" : "Section Background",
    "required" : false,
    "locked" : false,
    "type" : "gradient",
    "default" : { }
  }, {
    "id" : "10a8cd34-879e-0192-9acc-1112ccb32e83",
    "name" : "desktop_spacing",
    "display_width" : null,
    "label" : "Desktop Spacing",
    "required" : false,
    "locked" : false,
    "type" : "spacing",
    "default" : {
      "padding" : {
        "top" : {
          "value" : 54,
          "units" : "px"
        },
        "bottom" : {
          "value" : 70,
          "units" : "px"
        },
        "left" : {
          "value" : null,
          "units" : null
        },
        "right" : {
          "value" : null,
          "units" : null
        }
      }
    }
  }, {
    "id" : "7f2f1ffd-2075-d57d-5982-23b86d8bd177",
    "name" : "tablet_spacing",
    "display_width" : null,
    "label" : "Tablet Spacing",
    "required" : false,
    "locked" : false,
    "type" : "spacing",
    "default" : { }
  }, {
    "id" : "adf6e404-3d20-1978-2ddb-c771c6001729",
    "name" : "mobile_spacing",
    "display_width" : null,
    "label" : "Mobile Spacing",
    "required" : false,
    "locked" : false,
    "type" : "spacing",
    "default" : { }
  }, {
    "id" : "fab2ac7c-2df9-9de9-783c-0b90f8655c1b",
    "name" : "color_settings",
    "display_width" : null,
    "label" : "Color Settings",
    "required" : false,
    "locked" : false,
    "children" : [ {
      "id" : "66bb8c87-5ede-3901-bf06-7c7fba7d8a35",
      "name" : "filters_text_color",
      "display_width" : null,
      "label" : "Filters | Bottom Block Text Color",
      "required" : false,
      "locked" : false,
      "type" : "color",
      "default" : {
        "color" : "#fff",
        "opacity" : 100
      }
    }, {
      "id" : "10b921cc-5055-13ac-854d-a42cf447157e",
      "name" : "title_color",
      "display_width" : null,
      "label" : "Title Color",
      "required" : false,
      "locked" : false,
      "type" : "color",
      "default" : {
        "color" : null,
        "opacity" : null
      }
    }, {
      "id" : "54d7774d-ef7f-21e8-eb7d-779e1d282992",
      "name" : "paragraph_text_color",
      "display_width" : null,
      "label" : "Paragraph Text Color",
      "required" : false,
      "locked" : false,
      "type" : "color",
      "default" : {
        "color" : "#000",
        "opacity" : 100
      }
    } ],
    "tab" : "STYLE",
    "expanded" : false,
    "group_occurrence_meta" : null,
    "type" : "group",
    "default" : {
      "filters_text_color" : {
        "color" : "#fff",
        "opacity" : 100
      },
      "title_color" : {
        "color" : null,
        "opacity" : null
      },
      "paragraph_text_color" : {
        "color" : "#000",
        "opacity" : 100
      }
    }
  } ],
  "tab" : "STYLE",
  "expanded" : false,
  "group_occurrence_meta" : null,
  "type" : "group",
  "default" : {
    "section_show_hide_" : true,
    "section_background" : { },
    "desktop_spacing" : {
      "padding" : {
        "top" : {
          "value" : 54,
          "units" : "px"
        },
        "bottom" : {
          "value" : 70,
          "units" : "px"
        },
        "left" : {
          "value" : null,
          "units" : null
        },
        "right" : {
          "value" : null,
          "units" : null
        }
      }
    },
    "tablet_spacing" : { },
    "mobile_spacing" : { },
    "color_settings" : {
      "filters_text_color" : {
        "color" : "#fff",
        "opacity" : 100
      },
      "title_color" : {
        "color" : null,
        "opacity" : null
      },
      "paragraph_text_color" : {
        "color" : "#000",
        "opacity" : 100
      }
    }
  }
}, {
  "id" : "b6c23046-8627-19aa-11dd-7424ca3ddf6b",
  "name" : "hide_filter_and_listing_show_no_available_message_",
  "display_width" : null,
  "label" : "Hide Filter And Listing [ Show No Available Message]",
  "required" : false,
  "locked" : false,
  "display" : "toggle",
  "type" : "boolean",
  "default" : true
}, {
  "id" : "31ae2921-05ec-0e98-e380-f5179d135d99",
  "name" : "filter_title",
  "display_width" : null,
  "label" : "HubDB Filter Title",
  "required" : false,
  "locked" : false,
  "validation_regex" : "",
  "allow_new_line" : false,
  "show_emoji_picker" : false,
  "type" : "text",
  "default" : "Products"
}, {
  "id" : "79b799d4-65a4-488d-3981-30f604c4bfeb",
  "name" : "select_hubdb_table",
  "display_width" : null,
  "label" : "Select HubDB table",
  "required" : false,
  "locked" : false,
  "visibility" : {
    "controlling_field" : "b6c23046-8627-19aa-11dd-7424ca3ddf6b",
    "controlling_field_path" : null,
    "controlling_value_regex" : "true",
    "property" : null,
    "operator" : "MATCHES_REGEX",
    "access" : null
  },
  "type" : "hubdbtable",
  "default" : 5438319
}, {
  "id" : "2a63a93c-c78a-6efd-27b0-b5cbc4b853ad",
  "name" : "title",
  "display_width" : null,
  "label" : "Title",
  "required" : false,
  "locked" : false,
  "validation_regex" : "",
  "visibility" : {
    "controlling_field" : "b6c23046-8627-19aa-11dd-7424ca3ddf6b",
    "controlling_field_path" : null,
    "controlling_value_regex" : "true",
    "property" : null,
    "operator" : "MATCHES_REGEX",
    "access" : null
  },
  "allow_new_line" : false,
  "show_emoji_picker" : false,
  "type" : "text",
  "default" : "ESS LTD Parts"
}, {
  "id" : "5d69637a-521b-e651-0034-fcd3f6a400c0",
  "name" : "description",
  "display_width" : null,
  "label" : "Description",
  "required" : false,
  "locked" : false,
  "validation_regex" : "",
  "visibility" : {
    "controlling_field" : "b6c23046-8627-19aa-11dd-7424ca3ddf6b",
    "controlling_field_path" : null,
    "controlling_value_regex" : "true",
    "property" : null,
    "operator" : "MATCHES_REGEX",
    "access" : null
  },
  "allow_new_line" : false,
  "show_emoji_picker" : false,
  "type" : "text",
  "default" : "Long established as Canada's largest supplier of aftermarket construction equipment parts, ESS sources quality parts worldwide for ALL makes and ALL models. With branches in Toronto, Vancouver, Montreal, Edmonton, London, Sudbury, Ottawa, Sparwood, and Quebec City, ESS can supply to any location across Canada. ESS carries world-renowned BERCO and ITM undercarriage products including track chains, track shoes, rubber tracks, rollers, idlers, and other parts for routine service of crawler-mounted equipment. ESS is also the largest volume supplier of ESCO ground engaging tools, such as bucket teeth/adapters & crushing jaws. From engine to hydraulic components and everything in between we will get you the highest quality products at a competitive price."
}, {
  "id" : "9c238f1b-9fe9-e9c3-a6d5-68d796424875",
  "name" : "category_filter_text",
  "display_width" : null,
  "label" : "Category filter text",
  "required" : false,
  "locked" : false,
  "validation_regex" : "",
  "allow_new_line" : false,
  "show_emoji_picker" : false,
  "type" : "text",
  "default" : "Category"
}, {
  "id" : "78c2d77e-0db5-e28b-9afc-22574f2ec6bb",
  "name" : "category_filter_unit_text_",
  "display_width" : null,
  "label" : "Category filter unit text ",
  "required" : false,
  "locked" : false,
  "validation_regex" : "",
  "allow_new_line" : false,
  "show_emoji_picker" : false,
  "type" : "text",
  "default" : ""
}, {
  "id" : "0f8d28fc-ef26-14d1-168e-dfc1e18b8a9c",
  "name" : "operating_weight_filter_text",
  "display_width" : null,
  "label" : "Operating weight filter text",
  "required" : false,
  "locked" : false,
  "validation_regex" : "",
  "allow_new_line" : false,
  "show_emoji_picker" : false,
  "type" : "text",
  "default" : "Operating weight"
}, {
  "id" : "cc55768b-7407-8cca-e16c-ab1f91d51d68",
  "name" : "operating_weight_unit_filter_text",
  "display_width" : null,
  "label" : "Operating weight unit filter text",
  "required" : false,
  "locked" : false,
  "validation_regex" : "",
  "allow_new_line" : false,
  "show_emoji_picker" : false,
  "type" : "text",
  "default" : "lbs"
}, {
  "id" : "ebdca5b9-8d26-9c36-e79e-70179ecfa77f",
  "name" : "horsepower_filter_text",
  "display_width" : null,
  "label" : "Horsepower filter text",
  "required" : false,
  "locked" : false,
  "validation_regex" : "",
  "allow_new_line" : false,
  "show_emoji_picker" : false,
  "type" : "text",
  "default" : "Horsepower"
}, {
  "id" : "a2f2564a-7450-e872-482c-65ae7e3e28f2",
  "name" : "horsepower_unit_filter_text",
  "display_width" : null,
  "label" : "Horsepower unit filter text",
  "required" : false,
  "locked" : false,
  "validation_regex" : "",
  "allow_new_line" : false,
  "show_emoji_picker" : false,
  "type" : "text",
  "default" : "hp"
}, {
  "id" : "046a79a9-fa26-854d-edc8-1462ad742eed",
  "name" : "specialities_filter_text",
  "display_width" : null,
  "label" : "Specialities filter text",
  "required" : false,
  "locked" : false,
  "validation_regex" : "",
  "allow_new_line" : false,
  "show_emoji_picker" : false,
  "type" : "text",
  "default" : "Specialities"
}, {
  "id" : "9a73ca23-a55e-8e6e-765d-27e8f5662b16",
  "name" : "blade_filter_text",
  "display_width" : null,
  "label" : "Blade filter text",
  "required" : false,
  "locked" : false,
  "validation_regex" : "",
  "allow_new_line" : false,
  "show_emoji_picker" : false,
  "type" : "text",
  "default" : "Blade"
}, {
  "id" : "739c6302-598e-4915-f778-359244291632",
  "name" : "blade_unit_filter_text",
  "display_width" : null,
  "label" : "Blade unit filter text",
  "required" : false,
  "locked" : false,
  "validation_regex" : "",
  "allow_new_line" : false,
  "show_emoji_picker" : false,
  "type" : "text",
  "default" : "yd3"
}, {
  "id" : "945b4a1e-ffda-8778-e1c1-1563781160c7",
  "name" : "no_result_text",
  "display_width" : null,
  "label" : "No Result Text",
  "required" : false,
  "locked" : false,
  "validation_regex" : "",
  "allow_new_line" : false,
  "show_emoji_picker" : false,
  "type" : "text",
  "default" : "No available inventory matches your search."
}, {
  "id" : "37d3c04d-ff21-657f-1ba0-753d143b96c1",
  "name" : "similar_product_title",
  "display_width" : null,
  "label" : "Similar Product Title",
  "required" : false,
  "locked" : false,
  "validation_regex" : "",
  "visibility" : {
    "controlling_field" : "b6c23046-8627-19aa-11dd-7424ca3ddf6b",
    "controlling_field_path" : null,
    "controlling_value_regex" : "true",
    "property" : null,
    "operator" : "MATCHES_REGEX",
    "access" : null
  },
  "allow_new_line" : false,
  "show_emoji_picker" : false,
  "type" : "text",
  "default" : "SIMILAR PRODUCTS"
}, {
  "id" : "881c9370-6825-716e-221a-9a41ec23ddc7",
  "name" : "show_background_contain",
  "display_width" : null,
  "label" : "Show Background Contain",
  "required" : false,
  "locked" : false,
  "display" : "toggle",
  "type" : "boolean",
  "default" : false
}, {
  "id" : "89d15b26-31af-1f3d-3830-4fb6157318ae",
  "name" : "card_details",
  "display_width" : null,
  "label" : "Card details",
  "required" : false,
  "locked" : false,
  "children" : [ {
    "id" : "e0d36727-3c53-d7a3-b19a-cc4962ceef80",
    "name" : "show_horsepower",
    "display_width" : null,
    "label" : "Show Horsepower",
    "required" : false,
    "locked" : false,
    "display" : "checkbox",
    "type" : "boolean",
    "default" : false
  }, {
    "id" : "127ad3a6-2dd5-a559-8190-7c4e1f81e5ea",
    "name" : "show_operating_weight",
    "display_width" : null,
    "label" : "Show operating weight",
    "required" : false,
    "locked" : false,
    "display" : "checkbox",
    "type" : "boolean",
    "default" : false
  }, {
    "id" : "4a3835ce-4c1f-e9c6-3627-b98faf14859b",
    "name" : "show_blade_boom_section",
    "display_width" : null,
    "label" : "Show blade/boom section",
    "required" : false,
    "locked" : false,
    "display" : "checkbox",
    "type" : "boolean",
    "default" : false
  } ],
  "tab" : "CONTENT",
  "expanded" : false,
  "group_occurrence_meta" : null,
  "type" : "group",
  "default" : {
    "show_horsepower" : false,
    "show_operating_weight" : false,
    "show_blade_boom_section" : false
  }
}, {
  "id" : "43f89476-60b0-0fb1-e706-90dc834e8fb0",
  "name" : "form_title",
  "display_width" : null,
  "label" : "Form Title",
  "required" : false,
  "locked" : false,
  "validation_regex" : "",
  "allow_new_line" : false,
  "show_emoji_picker" : false,
  "type" : "text",
  "default" : "Get a quote"
}, {
  "id" : "5ff54357-1406-59bf-c74c-de8ef1b7325b",
  "name" : "request_a_quote_form",
  "display_width" : null,
  "label" : "Request a quote form",
  "required" : false,
  "locked" : false,
  "type" : "form",
  "default" : {
    "form_id" : "055b1f95-c2b7-4275-98fa-42cf5e1951f4",
    "response_type" : "inline",
    "message" : "Thanks for submitting the form.",
    "gotowebinar_webinar_key" : null,
    "form_type" : "HUBSPOT"
  }
} ]