[
  {
    "id": "section_spacing",
    "name": "section_spacing",
    "display_width": null,
    "label": "Section Spacing",
    "help_text": "",
    "inline_help_text": "",
    "required": false,
    "locked": false,
    "type": "spacing",
    "default": {
      "padding": {
        "top": {
          "value": 40,
          "units": "px"
        },
        "bottom": {
          "value": 40,
          "units": "px"
        },
        "left": {
          "value": 30,
          "units": "px"
        },
        "right": {
          "value": 30,
          "units": "px"
        }
      }
    }
  },
  {
    "id": "text_icon_section.image",
    "name": "image",
    "display_width": null,
    "label": "Image",
    "help_text": "",
    "inline_help_text": "",
    "required": false,
    "locked": false,
    "responsive": true,
    "resizable": true,
    "show_loading": false,
    "type": "image",
    "default": {
      "size_type": "auto",
      "src": "",
      "alt": null,
      "loading": "disabled"
    }
  },
  {
    "id": "text_icon_section.text",
    "name": "text",
    "display_width": null,
    "label": "Text",
    "help_text": "",
    "inline_help_text": "",
    "required": false,
    "locked": false,
    "validation_regex": "",
    "validation_error_message": "",
    "placeholder": "",
    "allow_new_line": false,
    "show_emoji_picker": false,
    "type": "text",
    "default": "FINANCING"
  },
  {
    "name": "card_link",
    "label": "Card Link",
    "required": false,
    "locked": false,
    "supported_types": [
      "EXTERNAL",
      "CONTENT",
      "FILE",
      "EMAIL_ADDRESS",
      "BLOG"
    ],
    "type": "link",
    "inline_help_text": "",
    "help_text": "",
    "default": {
      "url": {
        "content_id": null,
        "type": "EXTERNAL",
        "href": "https://www.essltd.com/financing"
      },
      "open_in_new_tab": false,
      "no_follow": false
    }
  }
]