[ {
  "id" : "75497864-0037-7558-6d8a-02b745fc9044",
  "name" : "style",
  "display_width" : null,
  "label" : "Style",
  "required" : false,
  "locked" : false,
  "children" : [ {
    "id" : "3286c96f-cf0a-ef27-0cd2-4f00084b384d",
    "name" : "section_show_hide_",
    "display_width" : null,
    "label" : "Section [ Show | Hide ]",
    "required" : false,
    "locked" : false,
    "display" : "checkbox",
    "type" : "boolean",
    "default" : true
  }, {
    "id" : "e50a8d2e-5844-52ba-52ef-91fcae5b7e0f",
    "name" : "background_color",
    "display_width" : null,
    "label" : "Background color",
    "required" : false,
    "locked" : false,
    "type" : "color",
    "default" : {
      "color" : "#edbd3c",
      "opacity" : 100
    }
  } ],
  "tab" : "STYLE",
  "expanded" : false,
  "group_occurrence_meta" : null,
  "type" : "group",
  "default" : {
    "section_show_hide_" : true,
    "background_color" : {
      "color" : "#edbd3c",
      "opacity" : 100
    }
  }
}, {
  "id" : "1379bcbb-8b4c-b234-f1ac-426e68fd5e83",
  "name" : "provision_text",
  "display_width" : null,
  "label" : "Provision Text",
  "required" : false,
  "locked" : false,
  "validation_regex" : "",
  "allow_new_line" : false,
  "show_emoji_picker" : false,
  "type" : "text",
  "default" : "You are browsing in Testing !"
}, {
  "id" : "3c4322ca-9c28-8d53-f64e-9a025fc40da5",
  "name" : "province_map",
  "display_width" : null,
  "label" : "Province Map links",
  "required" : false,
  "locked" : false,
  "children" : [ {
    "id" : "4e399974-ed88-714b-90f7-ca033461b421",
    "name" : "yukon_link",
    "display_width" : null,
    "label" : "Yukon",
    "required" : false,
    "locked" : false,
    "validation_regex" : "",
    "allow_new_line" : false,
    "show_emoji_picker" : false,
    "type" : "text"
  }, {
    "id" : "f07b0be2-d444-84d4-d279-7ecfb71b4d6e",
    "name" : "nova_scotia",
    "display_width" : null,
    "label" : "Nova Scotia",
    "required" : false,
    "locked" : false,
    "validation_regex" : "",
    "allow_new_line" : false,
    "show_emoji_picker" : false,
    "type" : "text"
  }, {
    "id" : "f418a12f-0d5d-8f70-1001-c33e18728884",
    "name" : "newfoundland_laborador",
    "display_width" : null,
    "label" : "Newfoundland & Laborador",
    "required" : false,
    "locked" : false,
    "validation_regex" : "",
    "allow_new_line" : false,
    "show_emoji_picker" : false,
    "type" : "text"
  }, {
    "id" : "9b483697-5289-23bb-3eed-16c9814d342a",
    "name" : "british_columbia",
    "display_width" : null,
    "label" : "British Columbia",
    "required" : false,
    "locked" : false,
    "validation_regex" : "",
    "allow_new_line" : false,
    "show_emoji_picker" : false,
    "type" : "text"
  }, {
    "id" : "78e1f003-87c6-2e1b-e479-15f003c9bae7",
    "name" : "manitoba",
    "display_width" : null,
    "label" : "Manitoba",
    "required" : false,
    "locked" : false,
    "validation_regex" : "",
    "allow_new_line" : false,
    "show_emoji_picker" : false,
    "type" : "text"
  }, {
    "id" : "0d0c7d70-6ffb-919c-a42f-34086c91e2ca",
    "name" : "saskatchewan",
    "display_width" : null,
    "label" : "Saskatchewan",
    "required" : false,
    "locked" : false,
    "validation_regex" : "",
    "allow_new_line" : false,
    "show_emoji_picker" : false,
    "type" : "text"
  }, {
    "id" : "337c797a-5500-5505-1792-e0b2d730b613",
    "name" : "alberta",
    "display_width" : null,
    "label" : "Alberta",
    "required" : false,
    "locked" : false,
    "validation_regex" : "",
    "allow_new_line" : false,
    "show_emoji_picker" : false,
    "type" : "text"
  }, {
    "id" : "4e9d6d0c-75de-b9a7-cbcd-eb728c834f22",
    "name" : "northwest_territories",
    "display_width" : null,
    "label" : "Northwest Territories",
    "required" : false,
    "locked" : false,
    "validation_regex" : "",
    "allow_new_line" : false,
    "show_emoji_picker" : false,
    "type" : "text"
  }, {
    "id" : "8e78a99d-30d0-d8da-b924-4823429e6f47",
    "name" : "nunavut",
    "display_width" : null,
    "label" : "Nunavut",
    "required" : false,
    "locked" : false,
    "validation_regex" : "",
    "allow_new_line" : false,
    "show_emoji_picker" : false,
    "type" : "text"
  }, {
    "id" : "1367f7d1-ff72-949a-44af-7d7dcac17205",
    "name" : "prince_edward_island",
    "display_width" : null,
    "label" : "Prince Edward Island",
    "required" : false,
    "locked" : false,
    "validation_regex" : "",
    "allow_new_line" : false,
    "show_emoji_picker" : false,
    "type" : "text"
  }, {
    "id" : "0b64cbe6-cb72-ef16-03d6-6543db66b0f1",
    "name" : "ontario",
    "display_width" : null,
    "label" : "Ontario",
    "required" : false,
    "locked" : false,
    "validation_regex" : "",
    "allow_new_line" : false,
    "show_emoji_picker" : false,
    "type" : "text"
  }, {
    "id" : "a6bd9676-187a-f01c-1eb1-653fc948a4a3",
    "name" : "quebec",
    "display_width" : null,
    "label" : "Quebec",
    "required" : false,
    "locked" : false,
    "validation_regex" : "",
    "allow_new_line" : false,
    "show_emoji_picker" : false,
    "type" : "text"
  }, {
    "id" : "f47433d4-f5ff-f6c2-63ce-613013555a18",
    "name" : "new_brunswick",
    "display_width" : null,
    "label" : "New Brunswick",
    "required" : false,
    "locked" : false,
    "validation_regex" : "",
    "allow_new_line" : false,
    "show_emoji_picker" : false,
    "type" : "text"
  } ],
  "tab" : "CONTENT",
  "expanded" : false,
  "group_occurrence_meta" : null,
  "type" : "group",
  "default" : { }
}, {
  "id" : "4574d16d-1f5c-473d-2cc4-090803e323f4",
  "name" : "province",
  "display_width" : null,
  "label" : "Province mobile",
  "required" : false,
  "locked" : false,
  "occurrence" : {
    "min" : null,
    "max" : null,
    "sorting_label_field" : null,
    "default" : 5
  },
  "children" : [ {
    "id" : "bd62d36e-d075-2e36-1ffa-7f491284ea62",
    "name" : "province_name",
    "display_width" : null,
    "label" : "Province name",
    "required" : false,
    "locked" : false,
    "validation_regex" : "",
    "allow_new_line" : false,
    "show_emoji_picker" : false,
    "type" : "text",
    "default" : "Yukon"
  }, {
    "id" : "ccf0bcaa-b695-a46c-4b20-1dda0a123702",
    "name" : "link",
    "display_width" : null,
    "label" : "Link",
    "required" : false,
    "locked" : false,
    "validation_regex" : "",
    "allow_new_line" : false,
    "show_emoji_picker" : false,
    "type" : "text"
  } ],
  "tab" : "CONTENT",
  "expanded" : false,
  "group_occurrence_meta" : null,
  "type" : "group",
  "default" : [ {
    "province_name" : "Yukon"
  }, {
    "province_name" : "Yukon"
  }, {
    "province_name" : "Yukon"
  }, {
    "province_name" : "Yukon"
  }, {
    "province_name" : "Yukon"
  } ]
}, {
  "id" : "9da8a71b-7ce4-0ca8-4ace-91713278c700",
  "name" : "international_link",
  "display_width" : null,
  "label" : "International link",
  "required" : false,
  "locked" : false,
  "validation_regex" : "",
  "allow_new_line" : false,
  "show_emoji_picker" : false,
  "type" : "text"
} ]