[ {
  "id" : "title",
  "name" : "title",
  "display_width" : null,
  "label" : "Title",
  "help_text" : "",
  "inline_help_text" : "",
  "required" : false,
  "locked" : false,
  "validation_regex" : "",
  "validation_error_message" : "",
  "placeholder" : "",
  "allow_new_line" : false,
  "show_emoji_picker" : false,
  "type" : "text",
  "default" : "HAVE A QUESTION?"
}, {
  "id" : "content",
  "name" : "content",
  "display_width" : null,
  "label" : "Content Text",
  "help_text" : "",
  "inline_help_text" : "",
  "required" : false,
  "locked" : false,
  "type" : "richtext",
  "default" : "Let us know if you have a question on anything using our form below."
}, {
  "id" : "form",
  "name" : "form",
  "display_width" : null,
  "label" : "Form",
  "help_text" : "",
  "inline_help_text" : "",
  "required" : false,
  "locked" : false,
  "type" : "form",
  "default" : {
    "form_id" : "fb9c3688-b7dc-44e5-9374-b20077d18d71",
    "response_type" : "inline",
    "message" : "Thanks for submitting the form.",
    "gotowebinar_webinar_key" : null
  }
}, {
  "id" : "styles",
  "name" : "styles",
  "display_width" : null,
  "label" : "Styles",
  "required" : false,
  "locked" : false,
  "children" : [ {
    "id" : "styles.section_show_hide_",
    "name" : "section_show_hide_",
    "display_width" : null,
    "label" : "Section [ Show | Hide ]",
    "help_text" : "",
    "inline_help_text" : "",
    "required" : false,
    "locked" : false,
    "display" : "checkbox",
    "type" : "boolean",
    "default" : true
  }, {
    "id" : "styles.background_color",
    "name" : "background_color",
    "display_width" : null,
    "label" : "Background Color",
    "help_text" : "",
    "inline_help_text" : "",
    "required" : false,
    "locked" : false,
    "type" : "color",
    "default" : {
      "color" : "#ffffff",
      "opacity" : 100
    }
  }, {
    "id" : "styles.color_settings",
    "name" : "color_settings",
    "display_width" : null,
    "label" : "Color Settings",
    "help_text" : "",
    "inline_help_text" : "",
    "required" : false,
    "locked" : false,
    "children" : [ {
      "id" : "styles.color_settings.title_color",
      "name" : "title_color",
      "display_width" : null,
      "label" : "Title Color ",
      "help_text" : "",
      "inline_help_text" : "",
      "required" : false,
      "locked" : false,
      "type" : "color",
      "default" : {
        "color" : null,
        "opacity" : null
      }
    }, {
      "id" : "styles.color_settings.title_ul_color",
      "name" : "title_ul_color",
      "display_width" : null,
      "label" : "Title Ul Color",
      "help_text" : "",
      "inline_help_text" : "",
      "required" : false,
      "locked" : false,
      "type" : "color",
      "default" : {
        "color" : "#ffc82f",
        "opacity" : 100
      }
    }, {
      "id" : "styles.color_settings.content_color",
      "name" : "content_color",
      "display_width" : null,
      "label" : "Content Color",
      "help_text" : "",
      "inline_help_text" : "",
      "required" : false,
      "locked" : false,
      "type" : "color",
      "default" : {
        "color" : "#000",
        "opacity" : 100
      }
    } ],
    "tab" : "STYLE",
    "expanded" : false,
    "group_occurrence_meta" : null,
    "type" : "group",
    "default" : { }
  }, {
    "id" : "styles.spacing",
    "name" : "spacing",
    "display_width" : null,
    "label" : "Spacing",
    "help_text" : "",
    "inline_help_text" : "",
    "required" : false,
    "locked" : false,
    "children" : [ {
      "id" : "styles.spacing.desktop_spacing",
      "name" : "desktop_spacing",
      "display_width" : null,
      "label" : "Desktop Spacing",
      "required" : false,
      "locked" : false,
      "type" : "spacing",
      "default" : {
        "padding" : {
          "top" : {
            "value" : 35,
            "units" : "px"
          },
          "bottom" : {
            "value" : 35,
            "units" : "px"
          },
          "left" : {
            "value" : null,
            "units" : null
          },
          "right" : {
            "value" : null,
            "units" : null
          }
        }
      }
    }, {
      "id" : "styles.spacing.Mobile_spacing",
      "name" : "Mobile_spacing",
      "display_width" : null,
      "label" : "Mobile Spacing",
      "required" : false,
      "locked" : false,
      "type" : "spacing",
      "default" : {
        "padding" : {
          "top" : {
            "value" : 35,
            "units" : "px"
          },
          "bottom" : {
            "value" : 35,
            "units" : "px"
          },
          "left" : {
            "value" : null,
            "units" : null
          },
          "right" : {
            "value" : null,
            "units" : null
          }
        }
      }
    } ],
    "tab" : "STYLE",
    "expanded" : false,
    "group_occurrence_meta" : null,
    "type" : "group",
    "default" : { }
  } ],
  "tab" : "STYLE",
  "expanded" : false,
  "group_occurrence_meta" : null,
  "type" : "group"
} ]