[ {
  "id" : "75497864-0037-7558-6d8a-02b745fc9044",
  "name" : "style",
  "display_width" : null,
  "label" : "Style",
  "required" : false,
  "locked" : false,
  "children" : [ {
    "id" : "3286c96f-cf0a-ef27-0cd2-4f00084b384d",
    "name" : "section_show_hide_",
    "display_width" : null,
    "label" : "Section [ Show | Hide ]",
    "required" : false,
    "locked" : false,
    "display" : "checkbox",
    "type" : "boolean",
    "default" : true
  }, {
    "id" : "b689f769-5520-25b7-8b47-6a0f75b5bba6",
    "name" : "section_background",
    "display_width" : null,
    "label" : "Section Background",
    "required" : false,
    "locked" : false,
    "type" : "gradient",
    "default" : {
      "colors" : [ {
        "color" : {
          "r" : 0,
          "g" : 0,
          "b" : 0,
          "a" : 1
        }
      }, {
        "color" : {
          "r" : 20,
          "g" : 10,
          "b" : 154,
          "a" : 1
        }
      }, {
        "color" : {
          "r" : 0,
          "g" : 0,
          "b" : 0,
          "a" : 1
        }
      } ],
      "side_or_corner" : {
        "verticalSide" : "BOTTOM",
        "horizontalSide" : null
      }
    }
  }, {
    "id" : "10a8cd34-879e-0192-9acc-1112ccb32e83",
    "name" : "desktop_spacing",
    "display_width" : null,
    "label" : "Desktop Spacing",
    "required" : false,
    "locked" : false,
    "type" : "spacing",
    "default" : {
      "padding" : {
        "top" : {
          "value" : 85,
          "units" : "px"
        },
        "bottom" : {
          "value" : 100,
          "units" : "px"
        },
        "left" : {
          "value" : null,
          "units" : null
        },
        "right" : {
          "value" : null,
          "units" : null
        }
      }
    }
  }, {
    "id" : "7f2f1ffd-2075-d57d-5982-23b86d8bd177",
    "name" : "tablet_spacing",
    "display_width" : null,
    "label" : "Tablet Spacing",
    "required" : false,
    "locked" : false,
    "type" : "spacing",
    "default" : { }
  }, {
    "id" : "adf6e404-3d20-1978-2ddb-c771c6001729",
    "name" : "mobile_spacing",
    "display_width" : null,
    "label" : "Mobile Spacing",
    "required" : false,
    "locked" : false,
    "type" : "spacing",
    "default" : { }
  }, {
    "id" : "fab2ac7c-2df9-9de9-783c-0b90f8655c1b",
    "name" : "color_settings",
    "display_width" : null,
    "label" : "Color Settings",
    "required" : false,
    "locked" : false,
    "children" : [ {
      "id" : "10b921cc-5055-13ac-854d-a42cf447157e",
      "name" : "title_color",
      "display_width" : null,
      "label" : "Title Color",
      "required" : false,
      "locked" : false,
      "type" : "color",
      "default" : {
        "color" : "#E6B415",
        "opacity" : 100
      }
    }, {
      "id" : "54d7774d-ef7f-21e8-eb7d-779e1d282992",
      "name" : "paragraph_text_color",
      "display_width" : null,
      "label" : "Paragraph Text Color",
      "required" : false,
      "locked" : false,
      "type" : "color",
      "default" : {
        "color" : "#FFFFFF",
        "opacity" : 100
      }
    } ],
    "tab" : "STYLE",
    "expanded" : false,
    "group_occurrence_meta" : null,
    "type" : "group",
    "default" : {
      "title_color" : {
        "color" : "#E6B415",
        "opacity" : 100
      },
      "paragraph_text_color" : {
        "color" : "#FFFFFF",
        "opacity" : 100
      }
    }
  } ],
  "tab" : "STYLE",
  "expanded" : false,
  "group_occurrence_meta" : null,
  "type" : "group",
  "default" : {
    "section_show_hide_" : true,
    "section_background" : {
      "colors" : [ {
        "color" : {
          "r" : 0,
          "g" : 0,
          "b" : 0,
          "a" : 1
        }
      }, {
        "color" : {
          "r" : 20,
          "g" : 10,
          "b" : 154,
          "a" : 1
        }
      }, {
        "color" : {
          "r" : 0,
          "g" : 0,
          "b" : 0,
          "a" : 1
        }
      } ],
      "side_or_corner" : {
        "verticalSide" : "BOTTOM",
        "horizontalSide" : null
      }
    },
    "desktop_spacing" : {
      "padding" : {
        "top" : {
          "value" : 85,
          "units" : "px"
        },
        "bottom" : {
          "value" : 100,
          "units" : "px"
        },
        "left" : {
          "value" : null,
          "units" : null
        },
        "right" : {
          "value" : null,
          "units" : null
        }
      }
    },
    "tablet_spacing" : { },
    "mobile_spacing" : { },
    "color_settings" : {
      "title_color" : {
        "color" : "#E6B415",
        "opacity" : 100
      },
      "paragraph_text_color" : {
        "color" : "#FFFFFF",
        "opacity" : 100
      }
    }
  }
}, {
  "id" : "412150ef-f11b-cbf1-ccd6-5d173a3ed640",
  "name" : "title",
  "display_width" : null,
  "label" : "Title",
  "required" : false,
  "locked" : false,
  "validation_regex" : "",
  "allow_new_line" : false,
  "show_emoji_picker" : false,
  "type" : "text",
  "default" : "WATCH POPULAR BRAND VIEDOS"
}, {
  "id" : "30246610-917f-7cb9-3acb-89bc65ef38a8",
  "name" : "content",
  "display_width" : null,
  "label" : "Content",
  "required" : false,
  "locked" : false,
  "type" : "richtext",
  "default" : "<p>Equipment Sales &amp; Service Limited is your reliable equipment provider for construction, demolition, forestry and material</p>"
}, {
  "id" : "40de8cd2-defa-3e36-786d-f53b83e4c6ed",
  "name" : "button_text",
  "display_width" : null,
  "label" : "Button Text",
  "required" : false,
  "locked" : false,
  "validation_regex" : "",
  "allow_new_line" : false,
  "show_emoji_picker" : false,
  "type" : "text",
  "default" : "WATCH MORE"
}, {
  "id" : "e2677447-111e-3806-9f18-1de4f8c4e5c8",
  "name" : "button_link",
  "display_width" : null,
  "label" : "Button Link",
  "required" : false,
  "locked" : false,
  "supported_types" : [ "EXTERNAL", "CONTENT", "FILE", "EMAIL_ADDRESS", "BLOG" ],
  "show_advanced_rel_options" : false,
  "type" : "link",
  "default" : {
    "url" : {
      "content_id" : null,
      "type" : "EXTERNAL",
      "href" : ""
    },
    "open_in_new_tab" : false,
    "no_follow" : false
  }
}, {
  "id" : "1a83bd47-9581-71ce-fbff-138fbef13e87",
  "name" : "select_video_type",
  "display_width" : null,
  "label" : "Select Video Type",
  "required" : false,
  "locked" : false,
  "display" : "select",
  "choices" : [ [ "youtube", "Youtube" ], [ "hubspot", "Hubspot" ] ],
  "multiple" : false,
  "reordering_enabled" : true,
  "preset" : null,
  "type" : "choice",
  "default" : "youtube"
}, {
  "id" : "4e98e5cb-b7bb-9ee0-3a89-fb6e6bb3815f",
  "name" : "videoplayer_field",
  "display_width" : null,
  "label" : "Video",
  "required" : false,
  "locked" : false,
  "visibility" : {
    "controlling_field" : "1a83bd47-9581-71ce-fbff-138fbef13e87",
    "controlling_field_path" : null,
    "controlling_value_regex" : "hubspot",
    "property" : null,
    "operator" : "MATCHES_REGEX",
    "access" : null
  },
  "resizable" : true,
  "show_preview" : true,
  "show_advanced_options" : false,
  "type" : "videoplayer"
}, {
  "id" : "fbebb3ed-9dc8-5d24-a108-b70a3f0ea8af",
  "name" : "youtube",
  "display_width" : null,
  "label" : "Youtube",
  "required" : false,
  "locked" : false,
  "validation_regex" : "",
  "visibility" : {
    "controlling_field" : "1a83bd47-9581-71ce-fbff-138fbef13e87",
    "controlling_field_path" : null,
    "controlling_value_regex" : "youtube",
    "property" : null,
    "operator" : "MATCHES_REGEX",
    "access" : null
  },
  "allow_new_line" : false,
  "show_emoji_picker" : false,
  "type" : "text",
  "default" : "https://www.youtube.com/watch?v=EngW7tLk6R8"
}, {
  "id" : "3222338a-7214-0d51-a7cb-b0379750d7ac",
  "name" : "video_poster_image",
  "display_width" : null,
  "label" : "Video Poster Image",
  "required" : false,
  "locked" : false,
  "responsive" : true,
  "resizable" : true,
  "show_loading" : false,
  "type" : "image",
  "default" : {
    "size_type" : "auto",
    "src" : "https://4079460.fs1.hubspotusercontent-na1.net/hubfs/4079460/chub_backup/hero-slide.jpg",
    "alt" : "hero-slide",
    "loading" : "lazy",
    "width" : 2048,
    "height" : 1536,
    "max_width" : 2048,
    "max_height" : 1536
  }
}, {
  "id" : "79fda75c-3012-0219-fe82-656d8d1c3e39",
  "name" : "button_color_settings",
  "display_width" : null,
  "label" : "Button Color Settings",
  "required" : false,
  "locked" : false,
  "children" : [ {
    "id" : "8e25efc6-c4fc-b303-1abb-dc767e0cbd15",
    "name" : "button_default_state",
    "display_width" : null,
    "label" : "Button Default State",
    "required" : false,
    "locked" : false,
    "children" : [ {
      "id" : "620be58e-9e90-7b27-072e-0139857117a7",
      "name" : "button_background_color",
      "display_width" : null,
      "label" : "Button Background Color",
      "required" : false,
      "locked" : false,
      "type" : "color",
      "default" : {
        "color" : null,
        "opacity" : null
      }
    }, {
      "id" : "ec343b7e-e070-15c5-57cc-5f44a01eacb8",
      "name" : "button_text_color",
      "display_width" : null,
      "label" : "Button Text Color",
      "required" : false,
      "locked" : false,
      "type" : "color",
      "default" : {
        "color" : null,
        "opacity" : null
      }
    } ],
    "tab" : "CONTENT",
    "expanded" : false,
    "group_occurrence_meta" : null,
    "type" : "group",
    "default" : {
      "button_background_color" : {
        "color" : null,
        "opacity" : null
      },
      "button_text_color" : {
        "color" : null,
        "opacity" : null
      }
    }
  }, {
    "id" : "47eb6ab7-7c99-6d91-d4b9-6c189e660fd1",
    "name" : "button_hover_state",
    "display_width" : null,
    "label" : "Button Hover State",
    "required" : false,
    "locked" : false,
    "children" : [ {
      "id" : "df2f0bd5-2325-9df9-849e-e90d9d9d5870",
      "name" : "button_background_color",
      "display_width" : null,
      "label" : "Button Background Color",
      "required" : false,
      "locked" : false,
      "type" : "color",
      "default" : {
        "color" : null,
        "opacity" : null
      }
    }, {
      "id" : "970998f3-ae31-1bea-6b48-14f25fcf1c4b",
      "name" : "button_text_color",
      "display_width" : null,
      "label" : "Button Text Color",
      "required" : false,
      "locked" : false,
      "type" : "color",
      "default" : {
        "color" : null,
        "opacity" : null
      }
    } ],
    "tab" : "CONTENT",
    "expanded" : false,
    "group_occurrence_meta" : null,
    "type" : "group",
    "default" : {
      "button_background_color" : {
        "color" : null,
        "opacity" : null
      },
      "button_text_color" : {
        "color" : null,
        "opacity" : null
      }
    }
  } ],
  "tab" : "CONTENT",
  "expanded" : false,
  "group_occurrence_meta" : null,
  "type" : "group",
  "default" : {
    "button_default_state" : {
      "button_background_color" : {
        "color" : null,
        "opacity" : null
      },
      "button_text_color" : {
        "color" : null,
        "opacity" : null
      }
    },
    "button_hover_state" : {
      "button_background_color" : {
        "color" : null,
        "opacity" : null
      },
      "button_text_color" : {
        "color" : null,
        "opacity" : null
      }
    }
  }
} ]