{
  "global" : false,
  "content_types" : [ "BLOG_LISTING", "BLOG_POST" ],
  "master_language" : "en",
  "icon" : "@hubspot/boilerplate/images/module-icons/blog.svg",
  "host_template_types" : [ "BLOG_POST", "BLOG_LISTING" ],
  "module_id" : 78680093596,
  "label" : "Blog Sidebar - Theme",
  "is_available_for_new_content" : true
}